%YAML 1.1
%TAG !u! tag:unity3d.com,2011:
--- !u!1 &454633597933010896
GameObject:
  m_ObjectHideFlags: 0
  m_CorrespondingSourceObject: {fileID: 0}
  m_PrefabInstance: {fileID: 0}
  m_PrefabAsset: {fileID: 0}
  serializedVersion: 6
  m_Component:
  - component: {fileID: 454633597933010891}
  - component: {fileID: 454633597933010902}
  - component: {fileID: 454633597933010903}
  m_Layer: 0
  m_Name: ItemFood
  m_TagString: Untagged
  m_Icon: {fileID: 0}
  m_NavMeshLayer: 0
  m_StaticEditorFlags: 0
  m_IsActive: 1
--- !u!4 &454633597933010891
Transform:
  m_ObjectHideFlags: 0
  m_CorrespondingSourceObject: {fileID: 0}
  m_PrefabInstance: {fileID: 0}
  m_PrefabAsset: {fileID: 0}
  m_GameObject: {fileID: 454633597933010896}
  m_LocalRotation: {x: 0, y: 0, z: 0, w: 1}
  m_LocalPosition: {x: 0, y: 1, z: 0}
  m_LocalScale: {x: 1, y: 1, z: 1}
  m_Children:
  - {fileID: 3415456490972390855}
  m_Father: {fileID: 0}
  m_RootOrder: 0
  m_LocalEulerAnglesHint: {x: 0, y: 0, z: 0}
--- !u!135 &454633597933010902
SphereCollider:
  m_ObjectHideFlags: 0
  m_CorrespondingSourceObject: {fileID: 0}
  m_PrefabInstance: {fileID: 0}
  m_PrefabAsset: {fileID: 0}
  m_GameObject: {fileID: 454633597933010896}
  m_Material: {fileID: 0}
  m_IsTrigger: 1
  m_Enabled: 1
  serializedVersion: 2
  m_Radius: 0.75
  m_Center: {x: 0, y: 1, z: 0}
--- !u!114 &454633597933010903
MonoBehaviour:
  m_ObjectHideFlags: 0
  m_CorrespondingSourceObject: {fileID: 0}
  m_PrefabInstance: {fileID: 0}
  m_PrefabAsset: {fileID: 0}
  m_GameObject: {fileID: 454633597933010896}
  m_Enabled: 1
  m_EditorHideFlags: 0
  m_Script: {fileID: 11500000, guid: 166b527e61b768345ac78717c10ba07b, type: 3}
  m_Name: 
  m_EditorClassIdentifier: 
  type: 0
--- !u!1001 &1062135511095580564
PrefabInstance:
  m_ObjectHideFlags: 0
  serializedVersion: 2
  m_Modification:
    m_TransformParent: {fileID: 454633597933010891}
    m_Modifications:
    - target: {fileID: 1466239688383831200, guid: 027889704f05c134984e76e11d8a69d8,
        type: 3}
      propertyPath: m_Name
      value: Food
      objectReference: {fileID: 0}
    - target: {fileID: 2439637131435979347, guid: 027889704f05c134984e76e11d8a69d8,
        type: 3}
      propertyPath: m_LocalPosition.x
      value: 0
      objectReference: {fileID: 0}
    - target: {fileID: 2439637131435979347, guid: 027889704f05c134984e76e11d8a69d8,
        type: 3}
      propertyPath: m_LocalPosition.y
      value: 0
      objectReference: {fileID: 0}
    - target: {fileID: 2439637131435979347, guid: 027889704f05c134984e76e11d8a69d8,
        type: 3}
      propertyPath: m_LocalPosition.z
      value: 0
      objectReference: {fileID: 0}
    - target: {fileID: 2439637131435979347, guid: 027889704f05c134984e76e11d8a69d8,
        type: 3}
      propertyPath: m_LocalRotation.x
      value: 0
      objectReference: {fileID: 0}
    - target: {fileID: 2439637131435979347, guid: 027889704f05c134984e76e11d8a69d8,
        type: 3}
      propertyPath: m_LocalRotation.y
      value: 0
      objectReference: {fileID: 0}
    - target: {fileID: 2439637131435979347, guid: 027889704f05c134984e76e11d8a69d8,
        type: 3}
      propertyPath: m_LocalRotation.z
      value: 0
      objectReference: {fileID: 0}
    - target: {fileID: 2439637131435979347, guid: 027889704f05c134984e76e11d8a69d8,
        type: 3}
      propertyPath: m_LocalRotation.w
      value: 1
      objectReference: {fileID: 0}
    - target: {fileID: 2439637131435979347, guid: 027889704f05c134984e76e11d8a69d8,
        type: 3}
      propertyPath: m_RootOrder
      value: 0
      objectReference: {fileID: 0}
    - target: {fileID: 2439637131435979347, guid: 027889704f05c134984e76e11d8a69d8,
        type: 3}
      propertyPath: m_LocalEulerAnglesHint.x
      value: 0
      objectReference: {fileID: 0}
    - target: {fileID: 2439637131435979347, guid: 027889704f05c134984e76e11d8a69d8,
        type: 3}
      propertyPath: m_LocalEulerAnglesHint.y
      value: 0
      objectReference: {fileID: 0}
    - target: {fileID: 2439637131435979347, guid: 027889704f05c134984e76e11d8a69d8,
        type: 3}
      propertyPath: m_LocalEulerAnglesHint.z
      value: 0
      objectReference: {fileID: 0}
    m_RemovedComponents: []
  m_SourcePrefab: {fileID: 100100000, guid: 027889704f05c134984e76e11d8a69d8, type: 3}
--- !u!4 &3415456490972390855 stripped
Transform:
  m_CorrespondingSourceObject: {fileID: 2439637131435979347, guid: 027889704f05c134984e76e11d8a69d8,
    type: 3}
  m_PrefabInstance: {fileID: 1062135511095580564}
  m_PrefabAsset: {fileID: 0}
